Targeted Learning for Causal Mediation Analysis • tmle3mediate
…
# load and examine data
library(mma)
data(weight_behavior)

# set a seed
set.seed(429153)

The documentation for the dataset describes it as a “database obtained from the Louisiana State University Health Sciences Center, New Orleans, by Dr. Richard Scribner. He explored the relationship between BMI and kids’ behavior through a survey at children, teachers and parents in Grenada in 2014. This data set includes 691 observations and 15 variables.”

Unfortunately, the dataset contains a few observations with missing values. As these are unrelated to the demonstration of our analytic methodology, we’ll simply remove these for the time being. Note that in a real-world data analysis, we would instead consider strategies for working with the observed data and missing observations, including imputation and inverse probability of censoring weighting. For now, we simply remove the incomplete observations, resulting in a dataset with fewer observations but much the same structure as the original:

## # A tibble: 567 x 15
##      bmi   age sex   race  numpeople   car gotosch snack tvhours cmpthours
##    <dbl> <dbl> <fct> <fct>     <int> <int> <fct>   <fct>   <dbl>     <dbl>
##  1  18.2  12.2 F     OTHER         5     3 2       1           4         0
##  2  22.8  12.8 M     OTHER         4     3 2       1           4         2
##  3  25.6  12.1 M     OTHER         2     3 2       1           0         2
##  4  15.1  12.3 M     OTHER         4     1 2       1           2         1
##  5  23.0  11.8 M     OTHER         4     1 1       1           4         3
##  6  19.2  12.1 F     OTHER         3     3 2       1           0         0
##  7  16.6  12.4 M     OTHER         5     3 1       1           0         0
##  8  22.1  11.9 F     OTHER         5     2 2       1           3         4
##  9  15.9  12.4 F     OTHER         4     3 2       2           0         0
## 10  18.6  12.7 M     OTHER         5     3 2       1           0         0
## # … with 557 more rows, and 5 more variables: cellhours <dbl>, sports <dbl>,
## #   exercises <int>, sweat <int>, overweigh <dbl>
…
